31
1, 1, 4, 1, 1, 4, 1, 1, 4, 1, 1, 4, 1, 1, 4, 1, 1, 4, 1, 1, 4, 1, 1, 4, 1, 1, 4, 1, 1, 4, 3
5.2, 3.4, 4, 5.2, 3.4, 4, 5.2, 3.4, 4, 5.2, 3.4, 4, 5.2, 3.4, 4, 5.2, 3.4, 4, 5.2, 3.4, 4, 5.2, 3.4, 4, 5.2, 3.4, 4, 5.2, 3.4, 4, 7
4
1, 1, 2, 5
0.7, 1, 1.2, 1.5
0.5, 0.9, 0.000001, 1.8
1, 1, 2, 2